{
    "datasets": [],
    "spad_datasets": {
        "synthetic_spad": [1,2,3,4,5]
    },
    "spad_properties": {
        "feature": "peak_count",
        "scale": 3,
        "stride": 30
    },
    "trackers": [
        {
            "name": "KCF",
            "tracker": "KCF.KCF",
            "scale_step": 0
        },
        {  
            "name": "Meanshift",
            "tracker": "MeanShift.MeanShift",
            "colour_space": "gray",
            "quantisation_bins": [16]
        },
        {  
            "name": "STRUCK",
            "tracker": "STRUCK.STRUCK",
            "searchRadius": 30            
        },
        {
            "name": "BlobTrack",
            "tracker": "BlobTrack.BlobTrack"
        }
    ],
    "description": "testing SPAD data"
}