{
    "datasets": ["pktest01"],
    "spad_datasets": {},
    "trackers": [
        {  
            "name": "STRUCK",
            "tracker": "STRUCK.STRUCK",
            "target_resetting": true,
            "reset_threshold": 1
        }
    ],
    "description": "Struck Test"
}