770
242 259 426 459 
0000000000011111111111100000000000
0000011111111111111111111000000000
0111111111111111111111111110000000
0111111111111111111111111111000000
0111111111111111111111111111100000
0111111111111111111111111111100000
0111111111111111111111111111110000
0111111111111111111111111111111000
1111111111111111111111111111111100
1111111111111111111111111111111111
1111111111111111111111111111111111
0111111111111111111111111111111111
0011111111111111111111111111111111
0000111111111111111111111111111111
0000001111111111111111111111111111
0000000000111111111111111111111100
0000000000000000000001111111110000
0000000000000000000000011100000000
