1270
275 296 253 269 
00000011111100000
00111111111111100
00111111111111110
00111111111111111
00111111111111111
00111111111111111
00111111111111111
00111111111111111
01111111111111110
01111111111111110
01111111111111110
01111111111111110
11111111111111110
11111111111111110
11111111111111110
11111111111111100
11111111111111100
11111111111111100
01111111111111100
01111111111111100
01111111111111100
00000000111111000
