650
197 219 407 446 
0000000000000000000111100000000000000000
0000000000000000011111111111111111110000
0000000000000011111111111111111111111100
0000000000001111111111111111111111111100
0000000000111111111111111111111111111110
0000000000111111111111111111111111111110
0000000000111111111111111111111111111111
0000000000111111111111111111111111111111
0000000000111111111111111111111111111111
0000000001111111111111111111111111111110
0000001111111111111111111111111111111110
0011111111111111111111111111111111111110
1111111111111111111111111111111100001100
1111111111111111111111111111110000000000
0111111111111111111111111110000000000000
0011111111111111111111111000000000000000
0001111111111111111111000000000000000000
0001111111111111111100000000000000000000
0000111111111111110000000000000000000000
0000011111111111100000000000000000000000
0000000111111111000000000000000000000000
0000000000111111000000000000000000000000
0000000000000110000000000000000000000000
