1260
280 298 247 264 
000001111110000000
001111111111111100
001111111111111110
001111111111111110
001111111111111110
011111111111111110
011111111111111110
011111111111111111
011111111111111111
011111111111111111
011111111111111111
011111111111111111
111111111111111111
111111111111111111
011111111111111111
001111111111111110
001111111111111110
000111111111111100
000000000111111100
