480
223 245 365 410 
0000000000000000000000111000000000000000000000
0000000000000000000011111111000000000000000000
0000000000000000001111111111111100000000000000
0000000000000000111111111111111111111111111110
0000000000000000111111111111111111111111111110
0000000000000001111111111111111111111111111111
0000000000000001111111111111111111111111111111
0000000000000011111111111111111111111111111111
0000000000001111111111111111111111111111111111
0000011111111111111111111111111111111111111111
1111111111111111111111111111111111111111111111
1111111111111111111111111111111111111111111111
1111111111111111111111111111111111111111111111
1111111111111111111111111111111111111111111110
1111111111111111111111111111111111111111111110
1111111111111111111111111111111111111111111110
1111111111111111111111111111111111111111111110
0111111111111111111111111111111111111111111100
0001111111111111111111111111111100000011111000
0000011111111111111111110000000000000000000000
0000000111111111111100000000000000000000000000
0000000001111111111000000000000000000000000000
0000000000011111110000000000000000000000000000
