%!PS-Adobe-3.0 EPSF-3.0
%%Creator: (MATLAB, The Mathworks, Inc. Version 9.2.0.538062 \(R2017a\). Operating System: Windows 8)
%%Title: results/egtest02/location_error.eps
%%CreationDate: 2017-07-08T22:03:42
%%Pages: (atend)
%%BoundingBox:    20     4   388   295
%%LanguageLevel: 3
%%EndComments
%%BeginProlog
%%BeginResource: procset (Apache XML Graphics Std ProcSet) 1.2 0
%%Version: 1.2 0
%%Copyright: (Copyright 2001-2003,2010 The Apache Software Foundation. License terms: http://www.apache.org/licenses/LICENSE-2.0)
/bd{bind def}bind def
/ld{load def}bd
/GR/grestore ld
/M/moveto ld
/LJ/setlinejoin ld
/C/curveto ld
/f/fill ld
/LW/setlinewidth ld
/GC/setgray ld
/t/show ld
/N/newpath ld
/CT/concat ld
/cp/closepath ld
/S/stroke ld
/L/lineto ld
/CC/setcmykcolor ld
/A/ashow ld
/GS/gsave ld
/RC/setrgbcolor ld
/RM/rmoveto ld
/ML/setmiterlimit ld
/re {4 2 roll M
1 index 0 rlineto
0 exch rlineto
neg 0 rlineto
cp } bd
/_ctm matrix def
/_tm matrix def
/BT { _ctm currentmatrix pop matrix _tm copy pop 0 0 moveto } bd
/ET { _ctm setmatrix } bd
/iTm { _ctm setmatrix _tm concat } bd
/Tm { _tm astore pop iTm 0 0 moveto } bd
/ux 0.0 def
/uy 0.0 def
/F {
  /Tp exch def
  /Tf exch def
  Tf findfont Tp scalefont setfont
  /cf Tf def  /cs Tp def
} bd
/ULS {currentpoint /uy exch def /ux exch def} bd
/ULE {
  /Tcx currentpoint pop def
  gsave
  newpath
  cf findfont cs scalefont dup
  /FontMatrix get 0 get /Ts exch def /FontInfo get dup
  /UnderlinePosition get Ts mul /To exch def
  /UnderlineThickness get Ts mul /Tt exch def
  ux uy To add moveto  Tcx uy To add lineto
  Tt setlinewidth stroke
  grestore
} bd
/OLE {
  /Tcx currentpoint pop def
  gsave
  newpath
  cf findfont cs scalefont dup
  /FontMatrix get 0 get /Ts exch def /FontInfo get dup
  /UnderlinePosition get Ts mul /To exch def
  /UnderlineThickness get Ts mul /Tt exch def
  ux uy To add cs add moveto Tcx uy To add cs add lineto
  Tt setlinewidth stroke
  grestore
} bd
/SOE {
  /Tcx currentpoint pop def
  gsave
  newpath
  cf findfont cs scalefont dup
  /FontMatrix get 0 get /Ts exch def /FontInfo get dup
  /UnderlinePosition get Ts mul /To exch def
  /UnderlineThickness get Ts mul /Tt exch def
  ux uy To add cs 10 mul 26 idiv add moveto Tcx uy To add cs 10 mul 26 idiv add lineto
  Tt setlinewidth stroke
  grestore
} bd
/QT {
/Y22 exch store
/X22 exch store
/Y21 exch store
/X21 exch store
currentpoint
/Y21 load 2 mul add 3 div exch
/X21 load 2 mul add 3 div exch
/X21 load 2 mul /X22 load add 3 div
/Y21 load 2 mul /Y22 load add 3 div
/X22 load /Y22 load curveto
} bd
/SSPD {
dup length /d exch dict def
{
/v exch def
/k exch def
currentpagedevice k known {
/cpdv currentpagedevice k get def
v cpdv ne {
/upd false def
/nullv v type /nulltype eq def
/nullcpdv cpdv type /nulltype eq def
nullv nullcpdv or
{
/upd true def
} {
/sametype v type cpdv type eq def
sametype {
v type /arraytype eq {
/vlen v length def
/cpdvlen cpdv length def
vlen cpdvlen eq {
0 1 vlen 1 sub {
/i exch def
/obj v i get def
/cpdobj cpdv i get def
obj cpdobj ne {
/upd true def
exit
} if
} for
} {
/upd true def
} ifelse
} {
v type /dicttype eq {
v {
/dv exch def
/dk exch def
/cpddv cpdv dk get def
dv cpddv ne {
/upd true def
exit
} if
} forall
} {
/upd true def
} ifelse
} ifelse
} if
} ifelse
upd true eq {
d k v put
} if
} if
} if
} forall
d length 0 gt {
d setpagedevice
} if
} bd
/RE { % /NewFontName [NewEncodingArray] /FontName RE -
  findfont dup length dict begin
  {
    1 index /FID ne
    {def} {pop pop} ifelse
  } forall
  /Encoding exch def
  /FontName 1 index def
  currentdict definefont pop
  end
} bind def
%%EndResource
%%BeginResource: procset (Apache XML Graphics EPS ProcSet) 1.0 0
%%Version: 1.0 0
%%Copyright: (Copyright 2002-2003 The Apache Software Foundation. License terms: http://www.apache.org/licenses/LICENSE-2.0)
/BeginEPSF { %def
/b4_Inc_state save def         % Save state for cleanup
/dict_count countdictstack def % Count objects on dict stack
/op_count count 1 sub def      % Count objects on operand stack
userdict begin                 % Push userdict on dict stack
/showpage { } def              % Redefine showpage, { } = null proc
0 setgray 0 setlinecap         % Prepare graphics state
1 setlinewidth 0 setlinejoin
10 setmiterlimit [ ] 0 setdash newpath
/languagelevel where           % If level not equal to 1 then
{pop languagelevel             % set strokeadjust and
1 ne                           % overprint to their defaults.
{false setstrokeadjust false setoverprint
} if
} if
} bd
/EndEPSF { %def
count op_count sub {pop} repeat            % Clean up stacks
countdictstack dict_count sub {end} repeat
b4_Inc_state restore
} bd
%%EndResource
%FOPBeginFontDict
%%IncludeResource: font Courier-Bold
%%IncludeResource: font Helvetica
%%IncludeResource: font Courier-BoldOblique
%%IncludeResource: font Courier-Oblique
%%IncludeResource: font Times-Roman
%%IncludeResource: font Helvetica-BoldOblique
%%IncludeResource: font Helvetica-Bold
%%IncludeResource: font Helvetica-Oblique
%%IncludeResource: font Times-BoldItalic
%%IncludeResource: font Courier
%%IncludeResource: font Times-Italic
%%IncludeResource: font Times-Bold
%%IncludeResource: font Symbol
%%IncludeResource: font ZapfDingbats
%FOPEndFontDict
%%BeginResource: encoding WinAnsiEncoding
/WinAnsiEncoding [
/.notdef /.notdef /.notdef /.notdef /.notdef
/.notdef /.notdef /.notdef /.notdef /.notdef
/.notdef /.notdef /.notdef /.notdef /.notdef
/.notdef /.notdef /.notdef /.notdef /.notdef
/.notdef /.notdef /.notdef /.notdef /.notdef
/.notdef /.notdef /.notdef /.notdef /.notdef
/.notdef /.notdef /space /exclam /quotedbl
/numbersign /dollar /percent /ampersand /quotesingle
/parenleft /parenright /asterisk /plus /comma
/hyphen /period /slash /zero /one
/two /three /four /five /six
/seven /eight /nine /colon /semicolon
/less /equal /greater /question /at
/A /B /C /D /E
/F /G /H /I /J
/K /L /M /N /O
/P /Q /R /S /T
/U /V /W /X /Y
/Z /bracketleft /backslash /bracketright /asciicircum
/underscore /quoteleft /a /b /c
/d /e /f /g /h
/i /j /k /l /m
/n /o /p /q /r
/s /t /u /v /w
/x /y /z /braceleft /bar
/braceright /asciitilde /bullet /Euro /bullet
/quotesinglbase /florin /quotedblbase /ellipsis /dagger
/daggerdbl /circumflex /perthousand /Scaron /guilsinglleft
/OE /bullet /Zcaron /bullet /bullet
/quoteleft /quoteright /quotedblleft /quotedblright /bullet
/endash /emdash /asciitilde /trademark /scaron
/guilsinglright /oe /bullet /zcaron /Ydieresis
/space /exclamdown /cent /sterling /currency
/yen /brokenbar /section /dieresis /copyright
/ordfeminine /guillemotleft /logicalnot /sfthyphen /registered
/macron /degree /plusminus /twosuperior /threesuperior
/acute /mu /paragraph /middot /cedilla
/onesuperior /ordmasculine /guillemotright /onequarter /onehalf
/threequarters /questiondown /Agrave /Aacute /Acircumflex
/Atilde /Adieresis /Aring /AE /Ccedilla
/Egrave /Eacute /Ecircumflex /Edieresis /Igrave
/Iacute /Icircumflex /Idieresis /Eth /Ntilde
/Ograve /Oacute /Ocircumflex /Otilde /Odieresis
/multiply /Oslash /Ugrave /Uacute /Ucircumflex
/Udieresis /Yacute /Thorn /germandbls /agrave
/aacute /acircumflex /atilde /adieresis /aring
/ae /ccedilla /egrave /eacute /ecircumflex
/edieresis /igrave /iacute /icircumflex /idieresis
/eth /ntilde /ograve /oacute /ocircumflex
/otilde /odieresis /divide /oslash /ugrave
/uacute /ucircumflex /udieresis /yacute /thorn
/ydieresis
] def
%%EndResource
%FOPBeginFontReencode
/Courier-Bold findfont
dup length dict begin
  {1 index /FID ne {def} {pop pop} ifelse} forall
  /Encoding WinAnsiEncoding def
  currentdict
end
/Courier-Bold exch definefont pop
/Helvetica findfont
dup length dict begin
  {1 index /FID ne {def} {pop pop} ifelse} forall
  /Encoding WinAnsiEncoding def
  currentdict
end
/Helvetica exch definefont pop
/Courier-BoldOblique findfont
dup length dict begin
  {1 index /FID ne {def} {pop pop} ifelse} forall
  /Encoding WinAnsiEncoding def
  currentdict
end
/Courier-BoldOblique exch definefont pop
/Courier-Oblique findfont
dup length dict begin
  {1 index /FID ne {def} {pop pop} ifelse} forall
  /Encoding WinAnsiEncoding def
  currentdict
end
/Courier-Oblique exch definefont pop
/Times-Roman findfont
dup length dict begin
  {1 index /FID ne {def} {pop pop} ifelse} forall
  /Encoding WinAnsiEncoding def
  currentdict
end
/Times-Roman exch definefont pop
/Helvetica-BoldOblique findfont
dup length dict begin
  {1 index /FID ne {def} {pop pop} ifelse} forall
  /Encoding WinAnsiEncoding def
  currentdict
end
/Helvetica-BoldOblique exch definefont pop
/Helvetica-Bold findfont
dup length dict begin
  {1 index /FID ne {def} {pop pop} ifelse} forall
  /Encoding WinAnsiEncoding def
  currentdict
end
/Helvetica-Bold exch definefont pop
/Helvetica-Oblique findfont
dup length dict begin
  {1 index /FID ne {def} {pop pop} ifelse} forall
  /Encoding WinAnsiEncoding def
  currentdict
end
/Helvetica-Oblique exch definefont pop
/Times-BoldItalic findfont
dup length dict begin
  {1 index /FID ne {def} {pop pop} ifelse} forall
  /Encoding WinAnsiEncoding def
  currentdict
end
/Times-BoldItalic exch definefont pop
/Courier findfont
dup length dict begin
  {1 index /FID ne {def} {pop pop} ifelse} forall
  /Encoding WinAnsiEncoding def
  currentdict
end
/Courier exch definefont pop
/Times-Italic findfont
dup length dict begin
  {1 index /FID ne {def} {pop pop} ifelse} forall
  /Encoding WinAnsiEncoding def
  currentdict
end
/Times-Italic exch definefont pop
/Times-Bold findfont
dup length dict begin
  {1 index /FID ne {def} {pop pop} ifelse} forall
  /Encoding WinAnsiEncoding def
  currentdict
end
/Times-Bold exch definefont pop
%FOPEndFontReencode
%%EndProlog
%%Page: 1 1
%%PageBoundingBox: 0 0 420 315
%%BeginPageSetup
[1 0 0 -1 0 315] CT
%%EndPageSetup
GS
[0.75 0 0 0.75 0 0] CT
1 GC
N
0 0 560 420 re
f
GR
GS
[0.75 0 0 0.75 0 0] CT
1 GC
N
0 0 560 420 re
f
GR
GS
[0.75 0 0 0.75 0 0] CT
1 GC
N
73 374 M
507 374 L
507 31 L
73 31 L
cp
f
GR
GS
[0.75 0 0 0.75 0 0] CT
0.149 GC
2 setlinecap
1 LJ
0.667 LW
N
73 374 M
507 374 L
S
GR
GS
[0.75 0 0 0.75 0 0] CT
0.149 GC
2 setlinecap
1 LJ
0.667 LW
N
73 31 M
507 31 L
S
GR
GS
[0.75 0 0 0.75 0 0] CT
0.149 GC
2 setlinecap
1 LJ
0.667 LW
N
73 374 M
73 369.66 L
S
GR
GS
[0.75 0 0 0.75 0 0] CT
0.149 GC
2 setlinecap
1 LJ
0.667 LW
N
127.25 374 M
127.25 369.66 L
S
GR
GS
[0.75 0 0 0.75 0 0] CT
0.149 GC
2 setlinecap
1 LJ
0.667 LW
N
181.5 374 M
181.5 369.66 L
S
GR
GS
[0.75 0 0 0.75 0 0] CT
0.149 GC
2 setlinecap
1 LJ
0.667 LW
N
235.75 374 M
235.75 369.66 L
S
GR
GS
[0.75 0 0 0.75 0 0] CT
0.149 GC
2 setlinecap
1 LJ
0.667 LW
N
290 374 M
290 369.66 L
S
GR
GS
[0.75 0 0 0.75 0 0] CT
0.149 GC
2 setlinecap
1 LJ
0.667 LW
N
344.25 374 M
344.25 369.66 L
S
GR
GS
[0.75 0 0 0.75 0 0] CT
0.149 GC
2 setlinecap
1 LJ
0.667 LW
N
398.5 374 M
398.5 369.66 L
S
GR
GS
[0.75 0 0 0.75 0 0] CT
0.149 GC
2 setlinecap
1 LJ
0.667 LW
N
452.75 374 M
452.75 369.66 L
S
GR
GS
[0.75 0 0 0.75 0 0] CT
0.149 GC
2 setlinecap
1 LJ
0.667 LW
N
507 374 M
507 369.66 L
S
GR
GS
[0.75 0 0 0.75 0 0] CT
0.149 GC
2 setlinecap
1 LJ
0.667 LW
N
73 31 M
73 35.34 L
S
GR
GS
[0.75 0 0 0.75 0 0] CT
0.149 GC
2 setlinecap
1 LJ
0.667 LW
N
127.25 31 M
127.25 35.34 L
S
GR
GS
[0.75 0 0 0.75 0 0] CT
0.149 GC
2 setlinecap
1 LJ
0.667 LW
N
181.5 31 M
181.5 35.34 L
S
GR
GS
[0.75 0 0 0.75 0 0] CT
0.149 GC
2 setlinecap
1 LJ
0.667 LW
N
235.75 31 M
235.75 35.34 L
S
GR
GS
[0.75 0 0 0.75 0 0] CT
0.149 GC
2 setlinecap
1 LJ
0.667 LW
N
290 31 M
290 35.34 L
S
GR
GS
[0.75 0 0 0.75 0 0] CT
0.149 GC
2 setlinecap
1 LJ
0.667 LW
N
344.25 31 M
344.25 35.34 L
S
GR
GS
[0.75 0 0 0.75 0 0] CT
0.149 GC
2 setlinecap
1 LJ
0.667 LW
N
398.5 31 M
398.5 35.34 L
S
GR
GS
[0.75 0 0 0.75 0 0] CT
0.149 GC
2 setlinecap
1 LJ
0.667 LW
N
452.75 31 M
452.75 35.34 L
S
GR
GS
[0.75 0 0 0.75 0 0] CT
0.149 GC
2 setlinecap
1 LJ
0.667 LW
N
507 31 M
507 35.34 L
S
GR
GS
[0.75 0 0 0.75 54.75 284.50001] CT
0.149 GC
/Helvetica 13.333 F
GS
[1 0 0 1 0 0] CT
-4 14 moveto 
1 -1 scale
(0) t 
GR
GR
GS
[0.75 0 0 0.75 95.4375 284.50001] CT
0.149 GC
/Helvetica 13.333 F
GS
[1 0 0 1 0 0] CT
-11 14 moveto 
1 -1 scale
(100) t 
GR
GR
GS
[0.75 0 0 0.75 136.125 284.50001] CT
0.149 GC
/Helvetica 13.333 F
GS
[1 0 0 1 0 0] CT
-11 14 moveto 
1 -1 scale
(200) t 
GR
GR
GS
[0.75 0 0 0.75 176.8125 284.50001] CT
0.149 GC
/Helvetica 13.333 F
GS
[1 0 0 1 0 0] CT
-11 14 moveto 
1 -1 scale
(300) t 
GR
GR
GS
[0.75 0 0 0.75 217.5 284.50001] CT
0.149 GC
/Helvetica 13.333 F
GS
[1 0 0 1 0 0] CT
-11 14 moveto 
1 -1 scale
(400) t 
GR
GR
GS
[0.75 0 0 0.75 258.1875 284.50001] CT
0.149 GC
/Helvetica 13.333 F
GS
[1 0 0 1 0 0] CT
-11 14 moveto 
1 -1 scale
(500) t 
GR
GR
GS
[0.75 0 0 0.75 298.875 284.50001] CT
0.149 GC
/Helvetica 13.333 F
GS
[1 0 0 1 0 0] CT
-11 14 moveto 
1 -1 scale
(600) t 
GR
GR
GS
[0.75 0 0 0.75 339.5625 284.50001] CT
0.149 GC
/Helvetica 13.333 F
GS
[1 0 0 1 0 0] CT
-11 14 moveto 
1 -1 scale
(700) t 
GR
GR
GS
[0.75 0 0 0.75 380.25 284.50001] CT
0.149 GC
/Helvetica 13.333 F
GS
[1 0 0 1 0 0] CT
-11 14 moveto 
1 -1 scale
(800) t 
GR
GR
GS
[0.75 0 0 0.75 217.50016 298.24999] CT
0.149 GC
/Helvetica 14.667 F
GS
[1 0 0 1 0 0] CT
-50.5 16 moveto 
1 -1 scale
(Frame Number) t 
GR
GR
GS
[0.75 0 0 0.75 0 0] CT
0.149 GC
2 setlinecap
1 LJ
0.667 LW
N
73 374 M
73 31 L
S
GR
GS
[0.75 0 0 0.75 0 0] CT
0.149 GC
2 setlinecap
1 LJ
0.667 LW
N
507 374 M
507 31 L
S
GR
GS
[0.75 0 0 0.75 0 0] CT
0.149 GC
2 setlinecap
1 LJ
0.667 LW
N
73 374 M
77.34 374 L
S
GR
GS
[0.75 0 0 0.75 0 0] CT
0.149 GC
2 setlinecap
1 LJ
0.667 LW
N
73 316.833 M
77.34 316.833 L
S
GR
GS
[0.75 0 0 0.75 0 0] CT
0.149 GC
2 setlinecap
1 LJ
0.667 LW
N
73 259.667 M
77.34 259.667 L
S
GR
GS
[0.75 0 0 0.75 0 0] CT
0.149 GC
2 setlinecap
1 LJ
0.667 LW
N
73 202.5 M
77.34 202.5 L
S
GR
GS
[0.75 0 0 0.75 0 0] CT
0.149 GC
2 setlinecap
1 LJ
0.667 LW
N
73 145.333 M
77.34 145.333 L
S
GR
GS
[0.75 0 0 0.75 0 0] CT
0.149 GC
2 setlinecap
1 LJ
0.667 LW
N
73 88.167 M
77.34 88.167 L
S
GR
GS
[0.75 0 0 0.75 0 0] CT
0.149 GC
2 setlinecap
1 LJ
0.667 LW
N
73 31 M
77.34 31 L
S
GR
GS
[0.75 0 0 0.75 0 0] CT
0.149 GC
2 setlinecap
1 LJ
0.667 LW
N
507 374 M
502.66 374 L
S
GR
GS
[0.75 0 0 0.75 0 0] CT
0.149 GC
2 setlinecap
1 LJ
0.667 LW
N
507 316.833 M
502.66 316.833 L
S
GR
GS
[0.75 0 0 0.75 0 0] CT
0.149 GC
2 setlinecap
1 LJ
0.667 LW
N
507 259.667 M
502.66 259.667 L
S
GR
GS
[0.75 0 0 0.75 0 0] CT
0.149 GC
2 setlinecap
1 LJ
0.667 LW
N
507 202.5 M
502.66 202.5 L
S
GR
GS
[0.75 0 0 0.75 0 0] CT
0.149 GC
2 setlinecap
1 LJ
0.667 LW
N
507 145.333 M
502.66 145.333 L
S
GR
GS
[0.75 0 0 0.75 0 0] CT
0.149 GC
2 setlinecap
1 LJ
0.667 LW
N
507 88.167 M
502.66 88.167 L
S
GR
GS
[0.75 0 0 0.75 0 0] CT
0.149 GC
2 setlinecap
1 LJ
0.667 LW
N
507 31 M
502.66 31 L
S
GR
GS
[0.75 0 0 0.75 50.75 280.5] CT
0.149 GC
/Helvetica 13.333 F
GS
[1 0 0 1 0 0] CT
-8 5.5 moveto 
1 -1 scale
(0) t 
GR
GR
GS
[0.75 0 0 0.75 50.75 237.62501] CT
0.149 GC
/Helvetica 13.333 F
GS
[1 0 0 1 0 0] CT
-15 5.5 moveto 
1 -1 scale
(50) t 
GR
GR
GS
[0.75 0 0 0.75 50.75 194.74999] CT
0.149 GC
/Helvetica 13.333 F
GS
[1 0 0 1 0 0] CT
-22 5.5 moveto 
1 -1 scale
(100) t 
GR
GR
GS
[0.75 0 0 0.75 50.75 151.875] CT
0.149 GC
/Helvetica 13.333 F
GS
[1 0 0 1 0 0] CT
-22 5.5 moveto 
1 -1 scale
(150) t 
GR
GR
GS
[0.75 0 0 0.75 50.75 109] CT
0.149 GC
/Helvetica 13.333 F
GS
[1 0 0 1 0 0] CT
-22 5.5 moveto 
1 -1 scale
(200) t 
GR
GR
GS
[0.75 0 0 0.75 50.75 66.125] CT
0.149 GC
/Helvetica 13.333 F
GS
[1 0 0 1 0 0] CT
-22 5.5 moveto 
1 -1 scale
(250) t 
GR
GR
GS
[0.75 0 0 0.75 50.75 23.25] CT
0.149 GC
/Helvetica 13.333 F
GS
[1 0 0 1 0 0] CT
-22 5.5 moveto 
1 -1 scale
(300) t 
GR
GR
GS
[0 -0.75 0.75 0 31.25 151.87489] CT
0.149 GC
/Helvetica 14.667 F
GS
[1 0 0 1 0 0] CT
-86 -4 moveto 
1 -1 scale
(Target Location Error \(px\)) t 
GR
GR
GS
[0.75 0 0 0.75 0 0] CT
0 0.447 0.741 RC
1 LJ
0.667 LW
N
74.085 370.848 M
74.628 370.116 L
75.17 368.832 L
75.713 369.517 L
76.255 368.711 L
76.798 372.635 L
77.34 371.313 L
77.882 370.919 L
78.425 370.417 L
78.967 368.54 L
79.51 367.482 L
80.052 367.692 L
80.595 367.706 L
81.137 369.069 L
81.68 367.244 L
82.223 368.951 L
82.765 366.057 L
83.308 369.299 L
83.85 370.074 L
84.393 368.211 L
84.935 368.51 L
85.478 369.119 L
86.02 367.063 L
86.563 369.391 L
87.105 370.105 L
87.647 367.516 L
88.19 369.054 L
88.732 368.231 L
89.275 368.568 L
89.817 370.624 L
90.36 372.329 L
90.902 372.637 L
91.445 372.748 L
91.988 371.937 L
92.53 371.317 L
93.073 373.26 L
93.615 371.557 L
94.158 371.355 L
94.7 371.728 L
95.243 372.142 L
95.785 368.768 L
96.327 370.747 L
96.87 371.038 L
97.412 370.232 L
97.955 370.492 L
98.497 371.537 L
99.04 371.363 L
99.582 370.428 L
100.125 367.874 L
100.668 368.733 L
101.21 369.644 L
101.753 370.398 L
102.295 370.042 L
102.838 369.067 L
103.38 369.773 L
103.923 368.184 L
104.465 367.934 L
105.007 369.829 L
105.55 368.215 L
106.092 369.587 L
106.635 368.606 L
107.177 368.782 L
107.72 369.208 L
108.262 368.689 L
108.805 367.199 L
109.348 367.955 L
109.89 368.033 L
110.433 364.4 L
110.975 366.557 L
111.518 368.592 L
112.06 368.475 L
112.603 368.618 L
113.145 367.879 L
113.688 368.999 L
114.23 369.34 L
114.772 370.929 L
115.315 369.187 L
115.857 369.202 L
116.4 369.58 L
116.942 369.924 L
117.485 368.404 L
118.027 369.161 L
118.57 367.633 L
119.113 368.613 L
119.655 369.728 L
120.198 369.525 L
120.74 368.617 L
121.283 369.184 L
121.825 367.083 L
122.368 368.158 L
122.91 368.484 L
123.452 367.139 L
123.995 366.953 L
124.537 367.95 L
125.08 366.911 L
125.622 368.747 L
126.165 369.633 L
126.707 368.355 L
127.25 368.098 L
127.793 369.685 L
128.335 371.31 L
128.878 371.071 L
129.42 371.569 L
129.962 369.057 L
130.505 367.744 L
131.048 369.38 L
131.59 369.903 L
132.133 367.592 L
132.675 367.601 L
133.217 368.545 L
133.76 367.567 L
134.303 368.525 L
134.845 369.567 L
135.387 369.25 L
135.93 367.912 L
136.473 368.517 L
137.015 367.643 L
137.557 367.322 L
138.1 367.314 L
138.643 367.226 L
139.185 367.837 L
139.727 369.813 L
140.27 367.977 L
140.813 368.713 L
141.355 368.897 L
141.898 366.939 L
142.44 367.732 L
142.982 365.628 L
143.525 365.711 L
144.068 366.845 L
144.61 367.394 L
145.152 368.342 L
145.695 367.263 L
146.238 369.424 L
146.78 366.953 L
147.322 366.556 L
147.865 366.23 L
148.408 367.069 L
148.95 367.21 L
149.492 367.335 L
150.035 366.429 L
150.577 365.509 L
151.12 365.243 L
151.663 365.923 L
152.205 364.912 L
152.747 363.901 L
153.29 362.888 L
153.833 366.137 L
154.375 366.165 L
154.917 366.137 L
155.46 366.062 L
156.003 365.418 L
156.545 364.767 L
157.087 364.758 L
157.63 365.453 L
158.173 364.351 L
158.715 364.474 L
159.258 365.642 L
159.8 366.358 L
160.342 364.796 L
160.885 366.394 L
161.428 364.588 L
161.97 364.356 L
162.512 364.605 L
163.055 363.903 L
163.598 365.104 L
164.14 361.907 L
164.682 361.928 L
165.225 362.622 L
165.768 366.3 L
166.31 363.899 L
166.852 368.541 L
167.395 366.183 L
167.938 366.699 L
168.48 364.835 L
169.023 366.018 L
169.565 365.462 L
170.107 365.181 L
170.65 364.723 L
171.193 366.039 L
171.735 365.83 L
172.277 366.488 L
172.82 366.565 L
173.363 369.55 L
173.905 368.645 L
174.447 367.564 L
174.99 369.982 L
175.533 367.543 L
176.075 368.295 L
176.617 368.829 L
177.16 369.011 L
177.702 369.621 L
178.245 368.977 L
178.788 369.788 L
179.33 367.939 L
179.872 367.706 L
180.415 368.084 L
180.958 369.022 L
181.5 368.878 L
182.042 368.314 L
182.585 366.481 L
183.128 365.965 L
183.67 364.458 L
184.212 364.627 L
184.755 364.437 L
185.298 365.299 L
185.84 364.704 L
186.383 363.958 L
186.925 363.202 L
187.467 364.604 L
188.01 364.386 L
188.553 363.464 L
189.095 367.47 L
189.637 366.376 L
190.18 364.1 L
190.723 363.718 L
191.265 363.383 L
191.807 364.23 L
192.35 364.908 L
192.893 365.658 L
193.435 366.839 L
193.977 363.409 L
194.52 364.301 L
195.063 365.66 L
195.605 364.452 L
196.148 367.058 L
196.69 366.689 L
197.232 367.367 L
197.775 368.459 L
198.318 368.226 L
198.86 367.891 L
199.402 369.425 L
199.945 367.617 L
200.488 367.097 L
201.03 368.085 L
201.572 365.967 L
202.115 369.648 L
202.658 368.055 L
203.2 369.781 L
203.742 369.882 L
204.285 371.415 L
204.827 372.855 L
205.37 371.592 L
205.913 373.777 L
206.455 372.822 L
206.997 371.348 L
207.54 372.737 L
208.083 369.779 L
208.625 369.543 L
209.167 369.327 L
209.71 369.932 L
210.253 365.07 L
210.795 365.713 L
211.337 362.552 L
211.88 360.503 L
212.423 330.946 L
212.965 329.159 L
213.508 326.778 L
214.05 326.479 L
214.592 324.739 L
215.135 324.183 L
215.678 324.615 L
216.22 324.937 L
216.762 325.782 L
217.305 326.046 L
217.848 324.878 L
218.39 324.539 L
218.932 323.29 L
219.475 324.263 L
220.018 325.69 L
220.56 325.79 L
221.102 322.893 L
221.645 319.405 L
222.188 318.519 L
222.73 319.038 L
223.273 319.935 L
223.815 319.661 L
224.357 320.813 L
224.9 319.744 L
225.443 318.07 L
225.985 318.336 L
226.527 317.569 L
227.07 318.372 L
227.613 317.635 L
228.155 314.573 L
228.697 314.738 L
229.24 315.097 L
229.783 316.271 L
230.325 314.937 L
230.867 314.177 L
231.41 313.91 L
231.952 313.906 L
232.495 315.02 L
233.038 313.217 L
233.58 311.298 L
234.122 313.881 L
234.665 313.849 L
235.208 312.239 L
235.75 312.545 L
236.292 311.284 L
236.835 311.387 L
237.378 311.402 L
237.92 311.611 L
238.462 309.665 L
239.005 309.874 L
239.548 310.242 L
240.09 307.227 L
240.633 309.198 L
241.175 309.14 L
241.717 308.15 L
242.26 308.712 L
242.803 307.985 L
243.345 309.221 L
243.887 307.18 L
244.43 309.267 L
244.973 308.965 L
245.515 307.886 L
246.057 308.789 L
246.6 307.296 L
247.143 306.735 L
247.685 305.738 L
248.227 306.383 L
248.77 306.09 L
249.313 302.745 L
249.855 305.813 L
250.398 303.346 L
250.94 303.248 L
251.482 303.173 L
252.025 299.784 L
252.568 300.85 L
253.11 300.8 L
253.652 300.222 L
254.195 300.629 L
254.738 300.285 L
255.28 301.544 L
255.822 302.181 L
256.365 302.406 L
256.908 301.626 L
257.45 302.219 L
257.992 301.759 L
258.535 301.237 L
259.078 302.281 L
259.62 301.768 L
260.163 302.027 L
260.705 300.405 L
261.247 300.023 L
261.79 300.861 L
262.332 300.619 L
262.875 300.451 L
263.418 300.131 L
263.96 301.755 L
264.503 302.378 L
265.045 300.954 L
265.587 296.198 L
266.13 296.755 L
266.672 296.058 L
267.215 297.11 L
267.758 297.435 L
268.3 296.688 L
268.842 295.882 L
269.385 296.855 L
269.927 291.55 L
270.47 284.006 L
271.013 283.118 L
271.555 279.763 L
272.098 281.802 L
272.64 281.388 L
273.182 280.796 L
273.725 282.309 L
274.267 282.574 L
274.81 282.009 L
275.353 280.128 L
275.895 279.875 L
276.438 292.242 L
276.98 284.919 L
277.522 285.143 L
278.065 285.337 L
278.608 279.477 L
279.15 279.691 L
279.693 279.917 L
280.235 282.18 L
280.777 281.419 L
281.32 280.809 L
281.862 279.035 L
282.405 282.81 L
282.948 280.584 L
283.49 280.022 L
284.033 280.168 L
284.575 285.851 L
285.117 285.481 L
285.66 285.125 L
286.203 284.689 L
286.745 283.366 L
287.288 284.523 L
287.83 286.207 L
288.372 285.907 L
288.915 284.719 L
289.457 285.989 L
290 287.099 L
290.543 289.24 L
291.085 291.256 L
291.628 288.631 L
292.17 289.557 L
292.712 288.586 L
293.255 287.249 L
293.797 291.543 L
294.34 289.343 L
294.883 292.054 L
295.425 288.598 L
295.967 289.13 L
296.51 294.003 L
297.052 292.497 L
297.595 294.977 L
298.138 292.303 L
298.68 293.15 L
299.223 293.011 L
299.765 294.221 L
300.307 291.251 L
300.85 291.362 L
301.392 291.934 L
301.935 292.157 L
302.478 292.541 L
303.02 293.763 L
303.563 291.119 L
304.105 290.847 L
304.647 292.392 L
305.19 292.478 L
305.733 293.335 L
306.275 290.798 L
306.818 290.927 L
307.36 291.089 L
307.902 292.338 L
308.445 291.723 L
308.987 289.541 L
309.53 291.922 L
310.073 291.021 L
310.615 292.957 L
311.158 292.641 L
311.7 293.36 L
312.242 293.389 L
312.785 294.901 L
313.328 294.499 L
313.87 295.163 L
314.413 296.971 L
314.955 298.513 L
315.497 300.101 L
316.04 300.266 L
316.582 302.039 L
317.125 301.702 L
317.668 302.276 L
318.21 300.208 L
318.753 300.062 L
319.295 299.554 L
319.837 300.621 L
320.38 302.413 L
320.922 301.355 L
321.465 302.127 L
322.008 301.843 L
322.55 299.547 L
323.092 299.284 L
323.635 298.982 L
324.177 300.402 L
324.72 299.402 L
325.263 299.278 L
325.805 296.626 L
326.348 297.763 L
326.89 296.821 L
327.432 297.178 L
327.975 295.14 L
328.517 291.657 L
329.06 293.605 L
329.603 294.988 L
330.145 295.51 L
330.688 297.389 L
331.23 297.347 L
331.772 296.513 L
332.315 296.461 L
332.858 296.23 L
333.4 299.67 L
333.943 299.493 L
334.485 300.164 L
335.027 297.85 L
335.57 298.594 L
336.112 296.016 L
336.655 296.135 L
337.198 299.326 L
337.74 296.455 L
338.283 297.048 L
338.825 296.581 L
339.367 297.353 L
339.91 298.443 L
340.453 298.249 L
340.995 303.307 L
341.538 299.677 L
342.08 296.088 L
342.622 296.517 L
343.165 296.453 L
343.707 294.181 L
344.25 294.805 L
344.793 298.636 L
345.335 296.202 L
345.878 295.057 L
346.42 296.399 L
346.962 293.967 L
347.505 296.814 L
348.047 297.079 L
348.59 295.24 L
349.133 299.312 L
349.675 297.854 L
350.217 295.584 L
350.76 297.211 L
351.302 296.008 L
351.845 296.54 L
352.388 296.142 L
352.93 294.031 L
353.473 293.609 L
354.015 295.209 L
354.557 295.697 L
355.1 297.497 L
355.642 299.729 L
356.185 303.361 L
356.728 305.266 L
357.27 306.444 L
357.813 303.498 L
358.355 305.03 L
358.897 306.059 L
359.44 305.765 L
359.983 306.871 L
360.525 303.388 L
361.068 300.717 L
361.61 297.92 L
362.152 298.27 L
362.695 295.995 L
363.237 290.755 L
363.78 294.447 L
364.323 289.931 L
364.865 290.22 L
365.408 290.496 L
365.95 290.873 L
366.492 281.523 L
367.035 275.918 L
367.578 273.395 L
368.12 271.043 L
368.663 271.113 L
369.205 268.837 L
369.747 269.327 L
370.29 271.034 L
370.832 270.234 L
371.375 264.088 L
371.918 263.613 L
372.46 266.021 L
373.003 264.736 L
373.545 264.311 L
374.087 265.019 L
374.63 262.474 L
375.172 258.836 L
375.715 259.304 L
376.258 256.917 L
376.8 255.649 L
377.342 253.149 L
377.885 249.522 L
378.427 248.19 L
378.97 245.365 L
379.513 244.506 L
380.055 241.327 L
380.598 241.919 L
381.14 240.713 L
381.682 239.127 L
382.225 240.85 L
382.767 236.893 L
383.31 239.268 L
383.853 234.263 L
384.395 232.131 L
384.938 233.005 L
385.48 232.719 L
386.022 233.326 L
386.565 228.631 L
387.108 229.605 L
387.65 226.948 L
388.193 227.123 L
388.735 225.991 L
389.277 222.864 L
389.82 222.885 L
390.362 217.724 L
390.905 217.103 L
391.448 213.742 L
391.99 213.581 L
392.533 211.294 L
393.075 208.292 L
393.617 207.549 L
394.16 207.064 L
394.703 205.915 L
395.245 206.716 L
395.788 204.691 L
396.33 204.123 L
396.872 202.849 L
397.415 198.997 L
397.957 197.359 L
398.5 190.536 L
399.043 190.464 L
399.585 187.389 L
400.128 185.604 L
400.67 185.904 L
401.212 184.051 L
401.755 179.834 L
402.297 173.549 L
402.84 173.995 L
403.383 173.603 L
403.925 173.666 L
404.467 168.975 L
405.01 167.479 L
405.552 168.114 L
406.095 171.856 L
406.638 170.844 L
407.18 170.063 L
407.723 167.616 L
408.265 166.666 L
408.807 167.032 L
409.35 157.611 L
409.892 156.492 L
410.435 154.609 L
410.978 157.088 L
411.52 159.002 L
412.063 158.223 L
412.605 154.522 L
413.147 154.467 L
413.69 154.381 L
414.233 150.932 L
414.775 144.262 L
415.318 150.261 L
415.86 142.465 L
416.402 142.555 L
416.945 145.024 L
417.487 146.971 L
418.03 146.343 L
418.573 144.743 L
419.115 141.672 L
419.658 136.925 L
420.2 137.532 L
420.742 135.822 L
421.285 129.482 L
421.828 128.357 L
422.37 126.665 L
422.913 124.704 L
423.455 126.609 L
423.997 124.285 L
424.54 122.862 L
425.082 123.571 L
425.625 118.915 L
426.168 118.423 L
426.71 119.369 L
427.253 118.578 L
427.795 116.753 L
428.337 115.011 L
428.88 117.148 L
429.422 114.642 L
429.965 112.5 L
430.508 113.044 L
431.05 110.992 L
431.592 111.116 L
432.135 109.159 L
432.677 106.389 L
433.22 106.949 L
433.763 104.8 L
434.305 106.667 L
434.848 106.948 L
435.39 105.336 L
435.932 105.912 L
436.475 103.936 L
437.017 101.869 L
437.56 97.791 L
438.103 96.724 L
438.645 95.841 L
439.188 92.649 L
439.73 93.52 L
440.272 91.697 L
440.815 92.495 L
441.358 92.433 L
441.9 90.384 L
442.443 92.37 L
442.985 89.488 L
443.527 87.559 L
444.07 88.913 L
444.612 86.75 L
445.155 87.788 L
445.698 87.47 L
446.24 86.775 L
446.783 86.915 L
447.325 84.104 L
447.867 85.334 L
448.41 83.424 L
448.953 83.831 L
449.495 83.892 L
450.038 80.406 L
450.58 81.871 L
451.122 79.816 L
451.665 78.921 L
452.207 78.082 L
452.75 75.935 L
453.293 76.267 L
453.835 75.777 L
454.378 72.829 L
454.92 74.648 L
455.462 73.681 L
456.005 73.478 L
456.547 72.761 L
457.09 69.703 L
457.633 70.046 L
458.175 68.666 L
458.717 68.607 L
459.26 67.9 L
459.802 67.553 L
460.345 67.599 L
460.888 66.212 L
461.43 65.947 L
461.973 64.659 L
462.515 65.201 L
463.057 65.98 L
S
GR
%%Trailer
%%Pages: 1
%%EOF
