60
61 86 161 178 
000111111000000000
001111111111111000
001111111111111100
011111111111111100
011111111111111110
111111111111111110
111111111111111110
111111111111111111
111111111111111111
111111111111111111
111111111111111111
111111111111111111
011111111111111111
011111111111111111
011111111111111111
011111111111111111
011111111111111111
011111111111111111
011111111111111111
011111111111111111
011111111111111111
001111111111111111
000011111111111111
000001111111111111
000000011111111110
000000000001111100
