980
273 293 303 333 
0000000000011111111111110000000
0000000111111111111111111100000
0000001111111111111111111111000
0000001111111111111111111111100
0000011111111111111111111111100
0000011111111111111111111111110
0000111111111111111111111111111
0001111111111111111111111111111
0011111111111111111111111111110
0111111111111111111111111111100
1111111111111111111111111111000
1111111111111111111111111111000
1111111111111111111111111110000
1111111111111111111111111100000
1111111111111111111111111000000
1111111111111111111111100000000
1111111111111111111110000000000
1111111111111111111000000000000
0011111111111111000000000000000
0000011111111100000000000000000
0000000011100000000000000000000
