580
294 317 320 340 
000000001111110000000
000000011111111110000
000000111111111111110
000001111111111111111
000011111111111111111
000011111111111111111
000111111111111111111
001111111111111111111
001111111111111111111
011111111111111111110
011111111111111111110
011111111111111111100
011111111111111111100
011111111111111111100
011111111111111111000
111111111111111111000
111111111111111111000
111111111111111110000
111111111111111110000
011111111111111100000
000111111111111100000
000011111111111100000
000001111111111000000
000000011111000000000
