640
219 239 296 318 
00000000011111100000000
00000011111111111111000
00000111111111111111110
00001111111111111111111
00001111111111111111111
00011111111111111111111
00111111111111111111110
00111111111111111111110
01111111111111111111110
01111111111111111111100
01111111111111111111100
01111111111111111111000
01111111111111111110000
11111111111111111110000
11111111111111111100000
11111111111111111100000
01111111111111111000000
00111111111111110000000
00111111111111110000000
00011111111111100000000
00000111111000000000000
