520
265 289 337 352 
0001111111110000
0011111111111110
0011111111111110
0111111111111110
0111111111111111
1111111111111111
1111111111111111
1111111111111111
1111111111111111
1111111111111111
1111111111111111
1111111111111111
1111111111111111
1111111111111111
1111111111111111
0111111111111111
0111111111111111
0111111111111111
0111111111111111
0111111111111111
0011111111111111
0001111111111111
0001111111111111
0000111111111100
0000011111110000
