1170
259 280 285 320 
000000000000000000011111110000000000
000000000000011111111111111110000000
000000000000111111111111111111100000
000000000001111111111111111111111000
000000000111111111111111111111111100
000000001111111111111111111111111111
000000011111111111111111111111111111
000000111111111111111111111111111111
000011111111111111111111111111111111
000111111111111111111111111111111111
001111111111111111111111111111111111
001111111111111111111111111111111111
011111111111111111111111111111111100
011111111111111111111111111111110000
111111111111111111111111111111100000
111111111111111111111111111110000000
111111111111111111111111111100000000
111111111111111111111111110000000000
111111111111111111111111000000000000
111111111111111111111100000000000000
001111111111111111110000000000000000
000000000011111111000000000000000000
