1030
289 310 267 299 
000000000000000111111100000000000
000000000011111111111111111100000
000000000111111111111111111111000
000000001111111111111111111111100
000000111111111111111111111111110
000001111111111111111111111111110
000011111111111111111111111111111
000111111111111111111111111111111
001111111111111111111111111111111
011111111111111111111111111111110
111111111111111111111111111111110
111111111111111111111111111111100
111111111111111111111111111111000
111111111111111111111111111110000
111111111111111111111111111110000
111111111111111111111111111100000
111111111111111111111111110000000
011111111111111111111111100000000
011111111111111111111111000000000
001111111111111111111100000000000
000011111111111111100000000000000
000000001111100000000000000000000
