1540
238 264 309 355 
00000000000000000000000011111111111110000000000
00000000000000000001111111111111111111100000000
00000000000000000111111111111111111111111000000
00000000000000011111111111111111111111111110000
00000000000001111111111111111111111111111111100
00000000000111111111111111111111111111111111111
00000000001111111111111111111111111111111111111
00000000011111111111111111111111111111111111111
00000001111111111111111111111111111111111111111
00000011111111111111111111111111111111111111110
00000111111111111111111111111111111111111111110
00011111111111111111111111111111111111111111110
00111111111111111111111111111111111111111111100
00111111111111111111111111111111111111111111100
01111111111111111111111111111111111111111111000
01111111111111111111111111111111111111111111000
01111111111111111111111111111111111111110000000
11111111111111111111111111111111111000000000000
01111111111111111111111111111111100000000000000
01111111111111111111111111111110000000000000000
00111111111111111111111111111000000000000000000
00011111111111111111111111100000000000000000000
00011111111111111111111110000000000000000000000
00001111111111111111111000000000000000000000000
00000011111111111111110000000000000000000000000
00000000111111111111100000000000000000000000000
00000000001111111111000000000000000000000000000
