60
129 142 159 189 
0000000000011111111000000000000
0001111111111111111100000000000
0001111111111111111110000000000
0011111111111111111111000000000
0011111111111111111111100000000
0111111111111111111111111111110
0111111111111111111111111111110
0111111111111111111111111111111
0111111111111111111111111111111
1111111111111111111111111111111
1111111111111111111111111111111
0011111111111111111111111111111
0000011111000000111111111111111
0000001100000000000000011111110
