1350
114 135 140 164 
0000001100000000000000000
0000011111000000000000000
0000111111110000000000000
0011111111111110000000000
0111111111111111100000000
1111111111111111111000000
1111111111111111111100000
1111111111111111111100000
1111111111111111111110000
1111111111111111111111000
0111111111111111111111100
0011111111111111111111100
0001111111111111111111110
0000111111111111111111111
0000011111111111111111111
0000001111111111111111111
0000000111111111111111111
0000000011111111111111111
0000000000111111111111111
0000000000001111111111111
0000000000000011111111111
0000000000000001111111100
