450
125 139 144 171 
0000000000001111111110000000
0001111111111111111111000000
0001111111111111111111100000
0011111111111111111111110000
0011111111111111111111111000
0111111111111111111111111100
0111111111111111111111111110
1111111111111111111111111111
1111111111111111111111111111
1111111111111111111111111111
1111111111111111111111111111
1111111111111111111111111110
1111111111111111111111111110
0011111111111111111111111110
0000111000000000011111111110
