30
126 140 121 150 
000001111111111111000000000000
001111111111111111100000000000
001111111111111111100000000000
011111111111111111110000000000
011111111111111111110000000000
111111111111111111111111111000
111111111111111111111111111100
111111111111111111111111111110
111111111111111111111111111111
111111111111111111111111111111
111111111111111111111111111111
011111111111111111111111111111
001111111111111111111111111110
000011111111111100000011111000
000000000000000000000000100000
