680
112 124 108 132 
0000011111111111111110000
0000111111111111111111100
0001111111111111111111111
0001111111111111111111111
0011111111111111111111111
0111111111111111111111110
1111111111111111111111110
1111111111111111111111110
0111111111111111111111100
0111111111111111111111100
0111111111111111111111000
0001111111111111111100000
0000011111111111100000000
