1000
107 126 105 136 
00001111111111000000000000000000
00001111111111110000000000000000
00011111111111111100000000000000
00011111111111111110000000000000
00111111111111111111100000000000
00111111111111111111111000000000
01111111111111111111111110000000
01111111111111111111111111000000
01111111111111111111111111110000
11111111111111111111111111111100
11111111111111111111111111111100
00111111111111111111111111111110
00001111111111111111111111111110
00000011111111111111111111111110
00000000111111111111111111111111
00000000000111111111111111111111
00000000000001111111111111111111
00000000000000001111111111111100
00000000000000000011111111111000
00000000000000000000000111100000
