830
113 128 113 134 
0000011100000000000000
0000011111110000000000
0000111111111111000000
0000111111111111111100
0001111111111111111111
0001111111111111111100
0011111111111111111000
0011111111111111100000
0111111111111111000000
1111111111111111000000
1111111111111111000000
1111111111111110000000
0011111111111111000000
0000111111111111100000
0000000011111111110000
0000000000000001111000
